%!PS-Adobe-3.0 EPSF-3.0
%%Creator: (MATLAB, The Mathworks, Inc. Version 9.5.0.1067069 \(R2018b\) Update 4. Operating System: Windows 10)
%%Title: (C:/Users/sanjana/OneDrive - University of Rochester/Documents/Sanjana/Projects/schizophrenia/schizReading/analysis_scripts/MergeFigs/Read/s_amp.eps)
%%CreationDate: 2022-04-27T16:36:24
%%Pages: (atend)
%%BoundingBox: 0 0 626 578
%%LanguageLevel: 3
%%EndComments
%%BeginProlog
%%BeginResource: procset (Apache XML Graphics Std ProcSet) 1.2 0
%%Version: 1.2 0
%%Copyright: (Copyright 2001-2003,2010 The Apache Software Foundation. License terms: http://www.apache.org/licenses/LICENSE-2.0)
/bd{bind def}bind def
/ld{load def}bd
/GR/grestore ld
/GS/gsave ld
/RM/rmoveto ld
/C/curveto ld
/t/show ld
/L/lineto ld
/ML/setmiterlimit ld
/CT/concat ld
/f/fill ld
/N/newpath ld
/S/stroke ld
/CC/setcmykcolor ld
/A/ashow ld
/cp/closepath ld
/RC/setrgbcolor ld
/LJ/setlinejoin ld
/GC/setgray ld
/LW/setlinewidth ld
/M/moveto ld
/re {4 2 roll M
1 index 0 rlineto
0 exch rlineto
neg 0 rlineto
cp } bd
/_ctm matrix def
/_tm matrix def
/BT { _ctm currentmatrix pop matrix _tm copy pop 0 0 moveto } bd
/ET { _ctm setmatrix } bd
/iTm { _ctm setmatrix _tm concat } bd
/Tm { _tm astore pop iTm 0 0 moveto } bd
/ux 0.0 def
/uy 0.0 def
/F {
  /Tp exch def
  /Tf exch def
  Tf findfont Tp scalefont setfont
  /cf Tf def  /cs Tp def
} bd
/ULS {currentpoint /uy exch def /ux exch def} bd
/ULE {
  /Tcx currentpoint pop def
  gsave
  newpath
  cf findfont cs scalefont dup
  /FontMatrix get 0 get /Ts exch def /FontInfo get dup
  /UnderlinePosition get Ts mul /To exch def
  /UnderlineThickness get Ts mul /Tt exch def
  ux uy To add moveto  Tcx uy To add lineto
  Tt setlinewidth stroke
  grestore
} bd
/OLE {
  /Tcx currentpoint pop def
  gsave
  newpath
  cf findfont cs scalefont dup
  /FontMatrix get 0 get /Ts exch def /FontInfo get dup
  /UnderlinePosition get Ts mul /To exch def
  /UnderlineThickness get Ts mul /Tt exch def
  ux uy To add cs add moveto Tcx uy To add cs add lineto
  Tt setlinewidth stroke
  grestore
} bd
/SOE {
  /Tcx currentpoint pop def
  gsave
  newpath
  cf findfont cs scalefont dup
  /FontMatrix get 0 get /Ts exch def /FontInfo get dup
  /UnderlinePosition get Ts mul /To exch def
  /UnderlineThickness get Ts mul /Tt exch def
  ux uy To add cs 10 mul 26 idiv add moveto Tcx uy To add cs 10 mul 26 idiv add lineto
  Tt setlinewidth stroke
  grestore
} bd
/QT {
/Y22 exch store
/X22 exch store
/Y21 exch store
/X21 exch store
currentpoint
/Y21 load 2 mul add 3 div exch
/X21 load 2 mul add 3 div exch
/X21 load 2 mul /X22 load add 3 div
/Y21 load 2 mul /Y22 load add 3 div
/X22 load /Y22 load curveto
} bd
/SSPD {
dup length /d exch dict def
{
/v exch def
/k exch def
currentpagedevice k known {
/cpdv currentpagedevice k get def
v cpdv ne {
/upd false def
/nullv v type /nulltype eq def
/nullcpdv cpdv type /nulltype eq def
nullv nullcpdv or
{
/upd true def
} {
/sametype v type cpdv type eq def
sametype {
v type /arraytype eq {
/vlen v length def
/cpdvlen cpdv length def
vlen cpdvlen eq {
0 1 vlen 1 sub {
/i exch def
/obj v i get def
/cpdobj cpdv i get def
obj cpdobj ne {
/upd true def
exit
} if
} for
} {
/upd true def
} ifelse
} {
v type /dicttype eq {
v {
/dv exch def
/dk exch def
/cpddv cpdv dk get def
dv cpddv ne {
/upd true def
exit
} if
} forall
} {
/upd true def
} ifelse
} ifelse
} if
} ifelse
upd true eq {
d k v put
} if
} if
} if
} forall
d length 0 gt {
d setpagedevice
} if
} bd
/RE { % /NewFontName [NewEncodingArray] /FontName RE -
  findfont dup length dict begin
  {
    1 index /FID ne
    {def} {pop pop} ifelse
  } forall
  /Encoding exch def
  /FontName 1 index def
  currentdict definefont pop
  end
} bind def
%%EndResource
%%BeginResource: procset (Apache XML Graphics EPS ProcSet) 1.0 0
%%Version: 1.0 0
%%Copyright: (Copyright 2002-2003 The Apache Software Foundation. License terms: http://www.apache.org/licenses/LICENSE-2.0)
/BeginEPSF { %def
/b4_Inc_state save def         % Save state for cleanup
/dict_count countdictstack def % Count objects on dict stack
/op_count count 1 sub def      % Count objects on operand stack
userdict begin                 % Push userdict on dict stack
/showpage { } def              % Redefine showpage, { } = null proc
0 setgray 0 setlinecap         % Prepare graphics state
1 setlinewidth 0 setlinejoin
10 setmiterlimit [ ] 0 setdash newpath
/languagelevel where           % If level not equal to 1 then
{pop languagelevel             % set strokeadjust and
1 ne                           % overprint to their defaults.
{false setstrokeadjust false setoverprint
} if
} if
} bd
/EndEPSF { %def
count op_count sub {pop} repeat            % Clean up stacks
countdictstack dict_count sub {end} repeat
b4_Inc_state restore
} bd
%%EndResource
%FOPBeginFontDict
%%IncludeResource: font Courier-Oblique
%%IncludeResource: font Courier-BoldOblique
%%IncludeResource: font Courier-Bold
%%IncludeResource: font ZapfDingbats
%%IncludeResource: font Symbol
%%IncludeResource: font Helvetica
%%IncludeResource: font Helvetica-Oblique
%%IncludeResource: font Helvetica-Bold
%%IncludeResource: font Helvetica-BoldOblique
%%IncludeResource: font Times-Roman
%%IncludeResource: font Times-Italic
%%IncludeResource: font Times-Bold
%%IncludeResource: font Times-BoldItalic
%%IncludeResource: font Courier
%FOPEndFontDict
%%BeginResource: encoding WinAnsiEncoding
/WinAnsiEncoding [
/.notdef /.notdef /.notdef /.notdef /.notdef
/.notdef /.notdef /.notdef /.notdef /.notdef
/.notdef /.notdef /.notdef /.notdef /.notdef
/.notdef /.notdef /.notdef /.notdef /.notdef
/.notdef /.notdef /.notdef /.notdef /.notdef
/.notdef /.notdef /.notdef /.notdef /.notdef
/.notdef /.notdef /space /exclam /quotedbl
/numbersign /dollar /percent /ampersand /quotesingle
/parenleft /parenright /asterisk /plus /comma
/hyphen /period /slash /zero /one
/two /three /four /five /six
/seven /eight /nine /colon /semicolon
/less /equal /greater /question /at
/A /B /C /D /E
/F /G /H /I /J
/K /L /M /N /O
/P /Q /R /S /T
/U /V /W /X /Y
/Z /bracketleft /backslash /bracketright /asciicircum
/underscore /quoteleft /a /b /c
/d /e /f /g /h
/i /j /k /l /m
/n /o /p /q /r
/s /t /u /v /w
/x /y /z /braceleft /bar
/braceright /asciitilde /bullet /Euro /bullet
/quotesinglbase /florin /quotedblbase /ellipsis /dagger
/daggerdbl /circumflex /perthousand /Scaron /guilsinglleft
/OE /bullet /Zcaron /bullet /bullet
/quoteleft /quoteright /quotedblleft /quotedblright /bullet
/endash /emdash /asciitilde /trademark /scaron
/guilsinglright /oe /bullet /zcaron /Ydieresis
/space /exclamdown /cent /sterling /currency
/yen /brokenbar /section /dieresis /copyright
/ordfeminine /guillemotleft /logicalnot /sfthyphen /registered
/macron /degree /plusminus /twosuperior /threesuperior
/acute /mu /paragraph /middot /cedilla
/onesuperior /ordmasculine /guillemotright /onequarter /onehalf
/threequarters /questiondown /Agrave /Aacute /Acircumflex
/Atilde /Adieresis /Aring /AE /Ccedilla
/Egrave /Eacute /Ecircumflex /Edieresis /Igrave
/Iacute /Icircumflex /Idieresis /Eth /Ntilde
/Ograve /Oacute /Ocircumflex /Otilde /Odieresis
/multiply /Oslash /Ugrave /Uacute /Ucircumflex
/Udieresis /Yacute /Thorn /germandbls /agrave
/aacute /acircumflex /atilde /adieresis /aring
/ae /ccedilla /egrave /eacute /ecircumflex
/edieresis /igrave /iacute /icircumflex /idieresis
/eth /ntilde /ograve /oacute /ocircumflex
/otilde /odieresis /divide /oslash /ugrave
/uacute /ucircumflex /udieresis /yacute /thorn
/ydieresis
] def
%%EndResource
%FOPBeginFontReencode
/Courier-Oblique findfont
dup length dict begin
  {1 index /FID ne {def} {pop pop} ifelse} forall
  /Encoding WinAnsiEncoding def
  currentdict
end
/Courier-Oblique exch definefont pop
/Courier-BoldOblique findfont
dup length dict begin
  {1 index /FID ne {def} {pop pop} ifelse} forall
  /Encoding WinAnsiEncoding def
  currentdict
end
/Courier-BoldOblique exch definefont pop
/Courier-Bold findfont
dup length dict begin
  {1 index /FID ne {def} {pop pop} ifelse} forall
  /Encoding WinAnsiEncoding def
  currentdict
end
/Courier-Bold exch definefont pop
/Helvetica findfont
dup length dict begin
  {1 index /FID ne {def} {pop pop} ifelse} forall
  /Encoding WinAnsiEncoding def
  currentdict
end
/Helvetica exch definefont pop
/Helvetica-Oblique findfont
dup length dict begin
  {1 index /FID ne {def} {pop pop} ifelse} forall
  /Encoding WinAnsiEncoding def
  currentdict
end
/Helvetica-Oblique exch definefont pop
/Helvetica-Bold findfont
dup length dict begin
  {1 index /FID ne {def} {pop pop} ifelse} forall
  /Encoding WinAnsiEncoding def
  currentdict
end
/Helvetica-Bold exch definefont pop
/Helvetica-BoldOblique findfont
dup length dict begin
  {1 index /FID ne {def} {pop pop} ifelse} forall
  /Encoding WinAnsiEncoding def
  currentdict
end
/Helvetica-BoldOblique exch definefont pop
/Times-Roman findfont
dup length dict begin
  {1 index /FID ne {def} {pop pop} ifelse} forall
  /Encoding WinAnsiEncoding def
  currentdict
end
/Times-Roman exch definefont pop
/Times-Italic findfont
dup length dict begin
  {1 index /FID ne {def} {pop pop} ifelse} forall
  /Encoding WinAnsiEncoding def
  currentdict
end
/Times-Italic exch definefont pop
/Times-Bold findfont
dup length dict begin
  {1 index /FID ne {def} {pop pop} ifelse} forall
  /Encoding WinAnsiEncoding def
  currentdict
end
/Times-Bold exch definefont pop
/Times-BoldItalic findfont
dup length dict begin
  {1 index /FID ne {def} {pop pop} ifelse} forall
  /Encoding WinAnsiEncoding def
  currentdict
end
/Times-BoldItalic exch definefont pop
/Courier findfont
dup length dict begin
  {1 index /FID ne {def} {pop pop} ifelse} forall
  /Encoding WinAnsiEncoding def
  currentdict
end
/Courier exch definefont pop
%FOPEndFontReencode
%%EndProlog
%%Page: 1 1
%%PageBoundingBox: 0 0 626 578
%%BeginPageSetup
[1 0 0 -1 0 578] CT
%%EndPageSetup
GS
[0.75 0 0 0.75 0 0.5] CT
1 GC
N
0 0 835 770 re
f
GR
GS
[0.75 0 0 0.75 0 0.5] CT
1 GC
N
0 0 835 770 re
f
GR
GS
[0.75 0 0 0.75 0 0.5] CT
1 GC
N
146 685 M
756 685 L
756 58 L
146 58 L
cp
f
GR
GS
[0.75 0 0 0.75 0 0.5] CT
0.149 GC
2 setlinecap
1 LJ
4 LW
N
146 685 M
756 685 L
S
GR
GS
[0.75 0 0 0.75 0 0.5] CT
0.149 GC
2 setlinecap
1 LJ
4 LW
N
349.333 685 M
349.333 678.73 L
S
GR
GS
[0.75 0 0 0.75 0 0.5] CT
0.149 GC
2 setlinecap
1 LJ
4 LW
N
552.667 685 M
552.667 678.73 L
S
GR
GS
[0.75 0 0 0.75 262.00001 522.65001] CT
0.149 GC
/Helvetica 42.667 F
GS
[1 0 0 1 0 0] CT
-77.5 43 moveto 
1 -1 scale
(Patients) t 
GR
GR
GS
[0.75 0 0 0.75 414.50002 522.65001] CT
0.149 GC
/Helvetica 42.667 F
GS
[1 0 0 1 0 0] CT
-79.5 43 moveto 
1 -1 scale
(Controls) t 
GR
GR
GS
[0.75 0 0 0.75 0 0.5] CT
0.149 GC
2 setlinecap
1 LJ
4 LW
N
146 685 M
146 58 L
S
GR
GS
[0.75 0 0 0.75 0 0.5] CT
0.149 GC
2 setlinecap
1 LJ
4 LW
N
146 685 M
152.27 685 L
S
GR
GS
[0.75 0 0 0.75 0 0.5] CT
0.149 GC
2 setlinecap
1 LJ
4 LW
N
146 580.5 M
152.27 580.5 L
S
GR
GS
[0.75 0 0 0.75 0 0.5] CT
0.149 GC
2 setlinecap
1 LJ
4 LW
N
146 476 M
152.27 476 L
S
GR
GS
[0.75 0 0 0.75 0 0.5] CT
0.149 GC
2 setlinecap
1 LJ
4 LW
N
146 371.5 M
152.27 371.5 L
S
GR
GS
[0.75 0 0 0.75 0 0.5] CT
0.149 GC
2 setlinecap
1 LJ
4 LW
N
146 267 M
152.27 267 L
S
GR
GS
[0.75 0 0 0.75 0 0.5] CT
0.149 GC
2 setlinecap
1 LJ
4 LW
N
146 162.5 M
152.27 162.5 L
S
GR
GS
[0.75 0 0 0.75 0 0.5] CT
0.149 GC
2 setlinecap
1 LJ
4 LW
N
146 58 M
152.27 58 L
S
GR
GS
[0.75 0 0 0.75 101.1 514.25] CT
0.149 GC
/Helvetica 42.667 F
GS
[1 0 0 1 0 0] CT
-72 16.5 moveto 
1 -1 scale
(100) t 
GR
GR
GS
[0.75 0 0 0.75 101.1 435.875] CT
0.149 GC
/Helvetica 42.667 F
GS
[1 0 0 1 0 0] CT
-72 16.5 moveto 
1 -1 scale
(200) t 
GR
GR
GS
[0.75 0 0 0.75 101.1 357.5] CT
0.149 GC
/Helvetica 42.667 F
GS
[1 0 0 1 0 0] CT
-72 16.5 moveto 
1 -1 scale
(300) t 
GR
GR
GS
[0.75 0 0 0.75 101.1 279.125] CT
0.149 GC
/Helvetica 42.667 F
GS
[1 0 0 1 0 0] CT
-72 16.5 moveto 
1 -1 scale
(400) t 
GR
GR
GS
[0.75 0 0 0.75 101.1 200.75] CT
0.149 GC
/Helvetica 42.667 F
GS
[1 0 0 1 0 0] CT
-72 16.5 moveto 
1 -1 scale
(500) t 
GR
GR
GS
[0.75 0 0 0.75 101.1 122.375] CT
0.149 GC
/Helvetica 42.667 F
GS
[1 0 0 1 0 0] CT
-72 16.5 moveto 
1 -1 scale
(600) t 
GR
GR
GS
[0.75 0 0 0.75 101.1 44] CT
0.149 GC
/Helvetica 42.667 F
GS
[1 0 0 1 0 0] CT
-72 16.5 moveto 
1 -1 scale
(700) t 
GR
GR
GS
[0 -0.75 0.75 0 44.25 279.12479] CT
0.149 GC
/Helvetica 46.933 F
GS
[1 0 0 1 0 0] CT
-96.5 -11 moveto 
1 -1 scale
(saccAmp) t 
GR
GR
GS
[0.75 0 0 0.75 414.50002 93.50579] CT
0 0 1 RC
N
6.667 0 M
6.667 -3.682 3.682 -6.667 0 -6.667 C
-3.682 -6.667 -6.667 -3.682 -6.667 0 C
-6.667 3.682 -3.682 6.667 0 6.667 C
3.682 6.667 6.667 3.682 6.667 0 C
cp
f
GR
GS
[0.75 0 0 0.75 414.50002 93.50579] CT
0 0.447 0.741 RC
10.0 ML
N
6.667 0 M
6.667 -3.682 3.682 -6.667 0 -6.667 C
-3.682 -6.667 -6.667 -3.682 -6.667 0 C
-6.667 3.682 -3.682 6.667 0 6.667 C
3.682 6.667 6.667 3.682 6.667 0 C
cp
S
GR
GS
[0.75 0 0 0.75 414.50002 415.18802] CT
0 1 0.502 RC
N
/f640454831{6.667 0 M
6.667 -3.682 3.682 -6.667 0 -6.667 C
-3.682 -6.667 -6.667 -3.682 -6.667 0 C
-6.667 3.682 -3.682 6.667 0 6.667 C
3.682 6.667 6.667 3.682 6.667 0 C
cp}def
f640454831
f
GR
GS
[0.75 0 0 0.75 414.50002 415.18802] CT
0.851 0.325 0.098 RC
10.0 ML
N
6.667 0 M
6.667 -3.682 3.682 -6.667 0 -6.667 C
-3.682 -6.667 -6.667 -3.682 -6.667 0 C
-6.667 3.682 -3.682 6.667 0 6.667 C
3.682 6.667 6.667 3.682 6.667 0 C
cp
S
GR
GS
[0.75 0 0 0.75 262.00001 501.6799] CT
0 0 1 RC
N
f640454831
f
GR
GS
[0.75 0 0 0.75 262.00001 501.6799] CT
0.929 0.694 0.125 RC
10.0 ML
N
6.667 0 M
6.667 -3.682 3.682 -6.667 0 -6.667 C
-3.682 -6.667 -6.667 -3.682 -6.667 0 C
-6.667 3.682 -3.682 6.667 0 6.667 C
3.682 6.667 6.667 3.682 6.667 0 C
cp
S
GR
GS
[0.75 0 0 0.75 262.00001 487.21732] CT
0 1 1 RC
N
f640454831
f
GR
GS
[0.75 0 0 0.75 262.00001 487.21732] CT
0.494 0.184 0.557 RC
10.0 ML
N
6.667 0 M
6.667 -3.682 3.682 -6.667 0 -6.667 C
-3.682 -6.667 -6.667 -3.682 -6.667 0 C
-6.667 3.682 -3.682 6.667 0 6.667 C
3.682 6.667 6.667 3.682 6.667 0 C
cp
S
GR
GS
[0.75 0 0 0.75 0 0.5] CT
1 LJ
4 LW
N
349.333 658.598 M
349.333 668.24 L
S
GR
GS
[0.75 0 0 0.75 0 0.5] CT
1 LJ
4 LW
N
552.667 338.463 M
552.667 552.917 L
S
GR
GS
[0.75 0 0 0.75 0 0.5] CT
1 LJ
4 LW
N
349.333 658.598 M
349.333 648.956 L
S
GR
GS
[0.75 0 0 0.75 0 0.5] CT
1 LJ
4 LW
N
552.667 338.463 M
552.667 124.008 L
S
GR
GS
[0.75 0 0 0.75 0 0.5] CT
1 LJ
4 LW
N
349.333 658.598 M
552.667 338.463 L
S
GR
GS
[0.75 0 0 0.75 262.00001 494.44861] CT
10.0 ML
4 LW
N
4 0 M
4 -2.209 2.209 -4 0 -4 C
-2.209 -4 -4 -2.209 -4 0 C
-4 2.209 -2.209 4 0 4 C
2.209 4 4 2.209 4 0 C
cp
S
GR
GS
[0.75 0 0 0.75 414.50002 254.34689] CT
10.0 ML
4 LW
N
4 0 M
4 -2.209 2.209 -4 0 -4 C
-2.209 -4 -4 -2.209 -4 0 C
-4 2.209 -2.209 4 0 4 C
2.209 4 4 2.209 4 0 C
cp
S
GR
GS
[0.75 0 0 0.75 262.00001 501.6799] CT
N
/f-401390582{-4 0 M
4 0 L}def
f-401390582
f
GR
GS
[0.75 0 0 0.75 262.00001 501.6799] CT
10.0 ML
4 LW
N
-4 0 M
4 0 L
S
GR
GS
[0.75 0 0 0.75 414.50002 415.18802] CT
N
f-401390582
f
GR
GS
[0.75 0 0 0.75 414.50002 415.18802] CT
10.0 ML
4 LW
N
-4 0 M
4 0 L
S
GR
GS
[0.75 0 0 0.75 262.00001 487.21732] CT
N
f-401390582
f
GR
GS
[0.75 0 0 0.75 262.00001 487.21732] CT
10.0 ML
4 LW
N
-4 0 M
4 0 L
S
GR
GS
[0.75 0 0 0.75 414.50002 93.50579] CT
N
f-401390582
f
GR
GS
[0.75 0 0 0.75 414.50002 93.50579] CT
10.0 ML
4 LW
N
-4 0 M
4 0 L
S
GR
%%Trailer
%%Pages: 1
%%EOF
